﻿<?xml version="1.0" encoding="utf-8"?>
<svg version="1.1" xmlns:xlink="http://www.w3.org/1999/xlink" width="32px" height="10px" preserveAspectRatio="xMinYMid meet" viewBox="373 1375  32 8" xmlns="http://www.w3.org/2000/svg">
  <path d="M 373 1379  L 399.5 1379  A 0.5 0.5 0 0 0 400 1378.5 A 0.5 0.5 0 0 1 400.5 1378 L 420 1378  " stroke-width="2" stroke="#d9001b" fill="none" />
</svg>