﻿<?xml version="1.0" encoding="utf-8"?>
<svg version="1.1" xmlns:xlink="http://www.w3.org/1999/xlink" width="16px" height="10px" preserveAspectRatio="xMinYMid meet" viewBox="715 161  16 8" xmlns="http://www.w3.org/2000/svg">
  <path d="M 690 175  L 715 175  A 5 5 0 0 0 720 170 A 5 5 0 0 1 725 165 L 731 165  " stroke-width="2" stroke="#d9001b" fill="none" />
</svg>