﻿<?xml version="1.0" encoding="utf-8"?>
<svg version="1.1" xmlns:xlink="http://www.w3.org/1999/xlink" width="10px" height="19px" preserveAspectRatio="xMidYMin meet" viewBox="586 365  8 19" xmlns="http://www.w3.org/2000/svg">
  <path d="M 590 384  L 590 375  A 5 5 0 0 1 595 370 L 776 370  A 5 5 0 0 1 781 375 L 781 384  " stroke-width="2" stroke="#d9001b" fill="none" />
</svg>