﻿<?xml version="1.0" encoding="utf-8"?>
<svg version="1.1" xmlns:xlink="http://www.w3.org/1999/xlink" width="10px" height="21px" preserveAspectRatio="xMidYMin meet" viewBox="514 334  8 21" xmlns="http://www.w3.org/2000/svg">
  <path d="M 518 334  L 518 345  A 5 5 0 0 1 513 350 L 328 350  A 5 5 0 0 1 323 345 L 323 330  " stroke-width="2" stroke="#d9001b" fill="none" />
</svg>