﻿<?xml version="1.0" encoding="utf-8"?>
<svg version="1.1" xmlns:xlink="http://www.w3.org/1999/xlink" width="10px" height="20px" preserveAspectRatio="xMidYMin meet" viewBox="777 335  8 20" xmlns="http://www.w3.org/2000/svg">
  <path d="M 589 334  L 589 345  A 5 5 0 0 0 594 350 L 776 350  A 5 5 0 0 0 781 345 L 781 335  " stroke-width="2" stroke="#d9001b" fill="none" />
</svg>