﻿<?xml version="1.0" encoding="utf-8"?>
<svg version="1.1" xmlns:xlink="http://www.w3.org/1999/xlink" width="10px" height="19px" preserveAspectRatio="xMidYMin meet" viewBox="452 885  8 19" xmlns="http://www.w3.org/2000/svg">
  <path d="M 456 904  L 456 895  A 5 5 0 0 0 451 890 L 179.5 890  A 2.5 2.5 0 0 0 177 892.5 L 177 895  " stroke-width="2" stroke="#d9001b" fill="none" />
</svg>