﻿<?xml version="1.0" encoding="utf-8"?>
<svg version="1.1" xmlns:xlink="http://www.w3.org/1999/xlink" width="10px" height="21px" preserveAspectRatio="xMidYMin meet" viewBox="523 944  8 21" xmlns="http://www.w3.org/2000/svg">
  <path d="M 527 944  L 527 955  A 5 5 0 0 1 522 960 L 315 960  A 5 5 0 0 1 310 955 L 310 942  " stroke-width="2" stroke="#d9001b" fill="none" />
</svg>