﻿<?xml version="1.0" encoding="utf-8"?>
<svg version="1.1" xmlns:xlink="http://www.w3.org/1999/xlink" width="10px" height="21px" preserveAspectRatio="xMidYMin meet" viewBox="667 944  8 21" xmlns="http://www.w3.org/2000/svg">
  <path d="M 671 944  L 671 955  A 5 5 0 0 0 676 960 L 918 960  A 5 5 0 0 0 923 955 L 923 944  " stroke-width="2" stroke="#d9001b" fill="none" />
</svg>