﻿<?xml version="1.0" encoding="utf-8"?>
<svg version="1.1" xmlns:xlink="http://www.w3.org/1999/xlink" width="16px" height="10px" preserveAspectRatio="xMinYMid meet" viewBox="349 1032  16 8" xmlns="http://www.w3.org/2000/svg">
  <path d="M 499 1008  L 365 1008  A 5 5 0 0 0 360 1013 L 360 1031  A 5 5 0 0 1 355 1036 L 349 1036  " stroke-width="2" stroke="#d9001b" fill="none" />
</svg>