﻿<?xml version="1.0" encoding="utf-8"?>
<svg version="1.1" xmlns:xlink="http://www.w3.org/1999/xlink" width="105px" height="10px" preserveAspectRatio="xMinYMid meet" viewBox="220 253  105 8" xmlns="http://www.w3.org/2000/svg">
  <path d="M 220 257  L 315 257  A 5 5 0 0 1 320 262 L 320 301  A 5 5 0 0 0 325 306 L 338 306  " stroke-width="2" stroke="#d9001b" fill="none" />
</svg>