﻿<?xml version="1.0" encoding="utf-8"?>
<svg version="1.1" xmlns:xlink="http://www.w3.org/1999/xlink" width="10px" height="20px" preserveAspectRatio="xMidYMin meet" viewBox="316 146  8 20" xmlns="http://www.w3.org/2000/svg">
  <path d="M 220 161  L 315 161  A 5 5 0 0 0 320 156 A 5 5 0 0 1 325 151 L 338 151  " stroke-width="2" stroke="#d9001b" fill="none" />
</svg>