﻿<?xml version="1.0" encoding="utf-8"?>
<svg version="1.1" xmlns:xlink="http://www.w3.org/1999/xlink" width="224px" height="166px" xmlns="http://www.w3.org/2000/svg">
  <g transform="matrix(1 0 0 1 -5 -66 )">
    <path d="M 5.5 66.5  L 228.5 66.5  L 228.5 231.5  L 5.5 231.5  L 5.5 66.5  Z " fill-rule="nonzero" fill="#f2f2f2" stroke="none" />
    <path d="M 5.5 66.5  L 228.5 66.5  L 228.5 231.5  L 5.5 231.5  L 5.5 66.5  Z " stroke-width="1" stroke="#797979" fill="none" />
    <path d="M 5.54207331931704 66.4017150491367  L 228.457926680683 231.598284950863  M 228.457926680683 66.4017150491367  L 5.54207331931704 231.598284950863  " stroke-width="1" stroke="#797979" fill="none" />
  </g>
</svg>