﻿<?xml version="1.0" encoding="utf-8"?>
<svg version="1.1" xmlns:xlink="http://www.w3.org/1999/xlink" width="105px" height="10px" preserveAspectRatio="xMinYMid meet" viewBox="220 116  105 8" xmlns="http://www.w3.org/2000/svg">
  <path d="M 220 120  L 315 120  A 5 5 0 0 0 320 115 L 320 87  A 5 5 0 0 1 325 82 L 336 82  " stroke-width="2" stroke="#d9001b" fill="none" />
</svg>