﻿<?xml version="1.0" encoding="utf-8"?>
<svg version="1.1" xmlns:xlink="http://www.w3.org/1999/xlink" width="10px" height="34px" preserveAspectRatio="xMidYMin meet" viewBox="316 357  8 34" xmlns="http://www.w3.org/2000/svg">
  <path d="M 220 362  L 315 362  A 5 5 0 0 1 320 367 L 320 381  A 5 5 0 0 0 325 386 L 336 386  " stroke-width="2" stroke="#d9001b" fill="none" />
</svg>