﻿<?xml version="1.0" encoding="utf-8"?>
<svg version="1.1" xmlns:xlink="http://www.w3.org/1999/xlink" width="21px" height="10px" preserveAspectRatio="xMinYMid meet" viewBox="315 458  21 8" xmlns="http://www.w3.org/2000/svg">
  <path d="M 220 422  L 315 422  A 5 5 0 0 1 320 427 L 320 457  A 5 5 0 0 0 325 462 L 336 462  " stroke-width="2" stroke="#d9001b" fill="none" />
</svg>