﻿<?xml version="1.0" encoding="utf-8"?>
<svg version="1.1" xmlns:xlink="http://www.w3.org/1999/xlink" width="201px" height="147px" xmlns="http://www.w3.org/2000/svg">
  <g transform="matrix(1 0 0 1 -19 -28 )">
    <path d="M 19.5 28.5  L 219.5 28.5  L 219.5 174.5  L 19.5 174.5  L 19.5 28.5  Z " fill-rule="nonzero" fill="#f2f2f2" stroke="none" />
    <path d="M 19.5 28.5  L 219.5 28.5  L 219.5 174.5  L 19.5 174.5  L 19.5 28.5  Z " stroke-width="1" stroke="#797979" fill="none" />
    <path d="M 19.551840942489 28.4035851668949  L 219.448159057511 174.596414833105  M 219.448159057511 28.4035851668949  L 19.551840942489 174.596414833105  " stroke-width="1" stroke="#797979" fill="none" />
  </g>
</svg>