﻿<?xml version="1.0" encoding="utf-8"?>
<svg version="1.1" xmlns:xlink="http://www.w3.org/1999/xlink" width="143px" height="109px" xmlns="http://www.w3.org/2000/svg">
  <defs>
    <mask fill="white" id="clip584">
      <path d="M 369 186  L 434 186  L 434 220  L 369 220  Z M 329 147  L 472 147  L 472 256  L 329 256  Z " fill-rule="evenodd" />
    </mask>
  </defs>
  <g transform="matrix(1 0 0 1 -329 -147 )">
    <path d="M 329.5 147.5  L 471.5 147.5  L 471.5 255.5  L 329.5 255.5  L 329.5 147.5  Z " fill-rule="nonzero" fill="#f2f2f2" stroke="none" />
    <path d="M 329.5 147.5  L 471.5 147.5  L 471.5 255.5  L 329.5 255.5  L 329.5 147.5  Z " stroke-width="1" stroke="#797979" fill="none" />
    <path d="M 329.521690260643 147.397652016854  L 471.478309739357 255.602347983146  M 471.478309739357 147.397652016854  L 329.521690260643 255.602347983146  " stroke-width="1" stroke="#797979" fill="none" mask="url(#clip584)" />
  </g>
</svg>