﻿<?xml version="1.0" encoding="utf-8"?>
<svg version="1.1" xmlns:xlink="http://www.w3.org/1999/xlink" width="108px" height="93px" xmlns="http://www.w3.org/2000/svg">
  <defs>
    <mask fill="white" id="clip548">
      <path d="M 154 434  L 206 434  L 206 453  L 154 453  Z M 125 395  L 233 395  L 233 488  L 125 488  Z " fill-rule="evenodd" />
    </mask>
  </defs>
  <g transform="matrix(1 0 0 1 -125 -395 )">
    <path d="M 125.5 395.5  L 232.5 395.5  L 232.5 487.5  L 125.5 487.5  L 125.5 395.5  Z " fill-rule="nonzero" fill="#f2f2f2" stroke="none" />
    <path d="M 125.5 395.5  L 232.5 395.5  L 232.5 487.5  L 125.5 487.5  L 125.5 395.5  Z " stroke-width="1" stroke="#797979" fill="none" />
    <path d="M 125.439994788463 395.378884401177  L 232.560005211537 487.621115598823  M 232.560005211537 395.378884401177  L 125.439994788463 487.621115598823  " stroke-width="1" stroke="#797979" fill="none" mask="url(#clip548)" />
  </g>
</svg>