﻿<?xml version="1.0" encoding="utf-8"?>
<svg version="1.1" xmlns:xlink="http://www.w3.org/1999/xlink" width="10px" height="22px" preserveAspectRatio="xMidYMin meet" viewBox="2776 945  8 22" xmlns="http://www.w3.org/2000/svg">
  <path d="M 2320 444  L 2320 945  A 5 5 0 0 0 2325 950 L 2775 950  A 5 5 0 0 1 2780 955 L 2780 967  " stroke-width="2" stroke="#0099cc" fill="none" />
</svg>