﻿<?xml version="1.0" encoding="utf-8"?>
<svg version="1.1" xmlns:xlink="http://www.w3.org/1999/xlink" width="815px" height="10px" preserveAspectRatio="xMinYMid meet" viewBox="2315 946  815 8" xmlns="http://www.w3.org/2000/svg">
  <path d="M 2320 444  L 2320 945  A 5 5 0 0 0 2325 950 L 3120 950  A 5 5 0 0 1 3125 955 L 3125 967  " stroke-width="2" stroke="#0099cc" fill="none" />
</svg>