﻿<?xml version="1.0" encoding="utf-8"?>
<svg version="1.1" xmlns:xlink="http://www.w3.org/1999/xlink" width="97px" height="10px" preserveAspectRatio="xMinYMid meet" viewBox="4188 946  97 8" xmlns="http://www.w3.org/2000/svg">
  <path d="M 4280 865  L 4280 945  A 5 5 0 0 1 4275 950 L 4198 950  A 5 5 0 0 0 4193 955 L 4193 967  " stroke-width="2" stroke="#0099cc" fill="none" />
</svg>