﻿<?xml version="1.0" encoding="utf-8"?>
<svg version="1.1" xmlns:xlink="http://www.w3.org/1999/xlink" width="10px" height="143px" preserveAspectRatio="xMidYMin meet" viewBox="5311 482  8 143" xmlns="http://www.w3.org/2000/svg">
  <path d="M 5315 482  L 5315 615  A 5 5 0 0 0 5320 620 L 5552 620  A 5 5 0 0 1 5557 625 L 5557 638  " stroke-width="2" stroke="#0099cc" fill="none" />
</svg>