﻿<?xml version="1.0" encoding="utf-8"?>
<svg version="1.1" xmlns:xlink="http://www.w3.org/1999/xlink" width="10px" height="22px" preserveAspectRatio="xMidYMin meet" viewBox="5438 945  8 22" xmlns="http://www.w3.org/2000/svg">
  <path d="M 5557 865  L 5557 945  A 5 5 0 0 1 5552 950 L 5447 950  A 5 5 0 0 0 5442 955 L 5442 967  " stroke-width="2" stroke="#0099cc" fill="none" />
</svg>