﻿<?xml version="1.0" encoding="utf-8"?>
<svg version="1.1" xmlns:xlink="http://www.w3.org/1999/xlink" width="10px" height="90px" preserveAspectRatio="xMidYMin meet" viewBox="5553 865  8 90" xmlns="http://www.w3.org/2000/svg">
  <path d="M 5557 865  L 5557 945  A 5 5 0 0 0 5562 950 L 5667 950  A 5 5 0 0 1 5672 955 L 5672 967  " stroke-width="2" stroke="#0099cc" fill="none" />
</svg>