﻿<?xml version="1.0" encoding="utf-8"?>
<svg version="1.1" xmlns:xlink="http://www.w3.org/1999/xlink" width="240px" height="10px" preserveAspectRatio="xMinYMid meet" viewBox="5552 946  240 8" xmlns="http://www.w3.org/2000/svg">
  <path d="M 5557 865  L 5557 945  A 5 5 0 0 0 5562 950 L 5782 950  A 5 5 0 0 1 5787 955 L 5787 967  " stroke-width="2" stroke="#0099cc" fill="none" />
</svg>