﻿<?xml version="1.0" encoding="utf-8"?>
<svg version="1.1" xmlns:xlink="http://www.w3.org/1999/xlink" width="10px" height="97px" preserveAspectRatio="xMidYMin meet" viewBox="5553 698  8 97" xmlns="http://www.w3.org/2000/svg">
  <path d="M 5557 698  L 5557 785  A 5 5 0 0 0 5562 790 L 6012 790  A 5 5 0 0 1 6017 795 L 6017 805  " stroke-width="2" stroke="#0099cc" fill="none" />
</svg>