﻿<?xml version="1.0" encoding="utf-8"?>
<svg version="1.1" xmlns:xlink="http://www.w3.org/1999/xlink" width="2425px" height="10px" preserveAspectRatio="xMinYMid meet" viewBox="4275 376  2425 8" xmlns="http://www.w3.org/2000/svg">
  <path d="M 4280 274  L 4280 375  A 5 5 0 0 0 4285 380 L 6690 380  A 5 5 0 0 1 6695 385 L 6695 390  " stroke-width="2" stroke="#0099cc" fill="none" />
</svg>