﻿<?xml version="1.0" encoding="utf-8"?>
<svg version="1.1" xmlns:xlink="http://www.w3.org/1999/xlink" width="10px" height="175px" preserveAspectRatio="xMidYMin meet" viewBox="6691 450  8 175" xmlns="http://www.w3.org/2000/svg">
  <path d="M 6695 450  L 6695 615  A 5 5 0 0 0 6700 620 L 6805 620  A 5 5 0 0 1 6810 625 L 6810 638  " stroke-width="2" stroke="#0099cc" fill="none" />
</svg>