﻿<?xml version="1.0" encoding="utf-8"?>
<svg version="1.1" xmlns:xlink="http://www.w3.org/1999/xlink" width="54px" height="10px" preserveAspectRatio="xMinYMid meet" viewBox="7389 616  54 8" xmlns="http://www.w3.org/2000/svg">
  <path d="M 7438 456  L 7438 615  A 5 5 0 0 1 7433 620 L 7399 620  A 5 5 0 0 0 7394 625 L 7394 638  " stroke-width="2" stroke="#0099cc" fill="none" />
</svg>