﻿<?xml version="1.0" encoding="utf-8"?>
<svg version="1.1" xmlns:xlink="http://www.w3.org/1999/xlink" width="10px" height="169px" preserveAspectRatio="xMidYMin meet" viewBox="7434 456  8 169" xmlns="http://www.w3.org/2000/svg">
  <path d="M 7438 456  L 7438 615  A 5 5 0 0 0 7443 620 L 7734 620  A 5 5 0 0 1 7739 625 L 7739 638  " stroke-width="2" stroke="#0099cc" fill="none" />
</svg>