﻿<?xml version="1.0" encoding="utf-8"?>
<svg version="1.1" xmlns:xlink="http://www.w3.org/1999/xlink" width="10px" height="181px" preserveAspectRatio="xMidYMin meet" viewBox="8011 444  8 181" xmlns="http://www.w3.org/2000/svg">
  <path d="M 8015 444  L 8015 615  A 5 5 0 0 0 8020 620 L 8085 620  A 5 5 0 0 1 8090 625 L 8090 632  " stroke-width="2" stroke="#0099cc" fill="none" />
</svg>