﻿<?xml version="1.0" encoding="utf-8"?>
<svg version="1.1" xmlns:xlink="http://www.w3.org/1999/xlink" width="295px" height="10px" preserveAspectRatio="xMinYMid meet" viewBox="251 946  295 8" xmlns="http://www.w3.org/2000/svg">
  <path d="M 541 444  L 541 945  A 5 5 0 0 1 536 950 L 261 950  A 5 5 0 0 0 256 955 L 256 967  " stroke-width="2" stroke="#0099cc" fill="none" />
</svg>