﻿<?xml version="1.0" encoding="utf-8"?>
<svg version="1.1" xmlns:xlink="http://www.w3.org/1999/xlink" width="3345px" height="10px" preserveAspectRatio="xMinYMid meet" viewBox="940 366  3345 8" xmlns="http://www.w3.org/2000/svg">
  <path d="M 4280 274  L 4280 365  A 5 5 0 0 1 4275 370 L 950 370  A 5 5 0 0 0 945 375 L 945 384  " stroke-width="2" stroke="#0099cc" fill="none" />
</svg>