﻿<?xml version="1.0" encoding="utf-8"?>
<svg version="1.1" xmlns:xlink="http://www.w3.org/1999/xlink" width="10px" height="101px" preserveAspectRatio="xMidYMin meet" viewBox="4276 274  8 101" xmlns="http://www.w3.org/2000/svg">
  <path d="M 4280 274  L 4280 365  A 5 5 0 0 1 4275 370 L 2325 370  A 5 5 0 0 0 2320 375 L 2320 384  " stroke-width="2" stroke="#0099cc" fill="none" />
</svg>