﻿<?xml version="1.0" encoding="utf-8"?>
<svg version="1.1" xmlns:xlink="http://www.w3.org/1999/xlink" width="163px" height="46px" xmlns="http://www.w3.org/2000/svg">
  <g transform="matrix(1 0 0 1 -71 -262 )">
    <path d="M 71.5 262.5  L 233.5 262.5  L 233.5 307.5  L 71.5 307.5  L 71.5 262.5  Z " fill-rule="nonzero" fill="#f2f2f2" stroke="none" />
    <path d="M 71.5 262.5  L 233.5 262.5  L 233.5 307.5  L 71.5 307.5  L 71.5 262.5  Z " stroke-width="1" stroke="#797979" fill="none" />
    <path d="M 72.7051396542744 262.481205055807  L 232.294860345726 307.518794944193  M 232.294860345726 262.481205055807  L 72.7051396542744 307.518794944193  " stroke-width="1" stroke="#797979" fill="none" />
  </g>
</svg>