﻿<?xml version="1.0" encoding="utf-8"?>
<svg version="1.1" xmlns:xlink="http://www.w3.org/1999/xlink" width="91px" height="85px" xmlns="http://www.w3.org/2000/svg">
  <defs>
    <mask fill="white" id="clip534">
      <path d="M 233.5 1436  L 285.5 1436  L 285.5 1455  L 233.5 1455  Z M 213 1401  L 304 1401  L 304 1486  L 213 1486  Z " fill-rule="evenodd" />
    </mask>
  </defs>
  <g transform="matrix(1 0 0 1 -213 -1401 )">
    <path d="M 213.5 1401.5  L 303.5 1401.5  L 303.5 1485.5  L 213.5 1485.5  L 213.5 1401.5  Z " fill-rule="nonzero" fill="#f2f2f2" stroke="none" />
    <path d="M 213.5 1401.5  L 303.5 1401.5  L 303.5 1485.5  L 213.5 1485.5  L 213.5 1401.5  Z " stroke-width="1" stroke="#797979" fill="none" />
    <path d="M 213.391186603357 1401.36539408006  L 303.608813396643 1485.63460591994  M 303.608813396643 1401.36539408006  L 213.391186603357 1485.63460591994  " stroke-width="1" stroke="#797979" fill="none" mask="url(#clip534)" />
  </g>
</svg>