﻿<?xml version="1.0" encoding="utf-8"?>
<svg version="1.1" xmlns:xlink="http://www.w3.org/1999/xlink" width="91px" height="85px" xmlns="http://www.w3.org/2000/svg">
  <defs>
    <mask fill="white" id="clip535">
      <path d="M 334.5 1436  L 386.5 1436  L 386.5 1455  L 334.5 1455  Z M 314 1401  L 405 1401  L 405 1486  L 314 1486  Z " fill-rule="evenodd" />
    </mask>
  </defs>
  <g transform="matrix(1 0 0 1 -314 -1401 )">
    <path d="M 314.5 1401.5  L 404.5 1401.5  L 404.5 1485.5  L 314.5 1485.5  L 314.5 1401.5  Z " fill-rule="nonzero" fill="#f2f2f2" stroke="none" />
    <path d="M 314.5 1401.5  L 404.5 1401.5  L 404.5 1485.5  L 314.5 1485.5  L 314.5 1401.5  Z " stroke-width="1" stroke="#797979" fill="none" />
    <path d="M 314.391186603357 1401.36539408006  L 404.608813396643 1485.63460591994  M 404.608813396643 1401.36539408006  L 314.391186603357 1485.63460591994  " stroke-width="1" stroke="#797979" fill="none" mask="url(#clip535)" />
  </g>
</svg>