﻿<?xml version="1.0" encoding="utf-8"?>
<svg version="1.1" xmlns:xlink="http://www.w3.org/1999/xlink" width="71px" height="63px" xmlns="http://www.w3.org/2000/svg">
  <g transform="matrix(1 0 0 1 -36 -1041 )">
    <path d="M 36.5 1041.5  L 106.5 1041.5  L 106.5 1103.5  L 36.5 1103.5  L 36.5 1041.5  Z " fill-rule="nonzero" fill="#f2f2f2" stroke="none" />
    <path d="M 36.5 1041.5  L 106.5 1041.5  L 106.5 1103.5  L 36.5 1103.5  L 36.5 1041.5  Z " stroke-width="1" stroke="#797979" fill="none" />
    <path d="M 36.421486585289 1041.37399513906  L 106.578513414711 1103.62600486094  M 106.578513414711 1041.37399513906  L 36.421486585289 1103.62600486094  " stroke-width="1" stroke="#797979" fill="none" />
  </g>
</svg>