﻿<?xml version="1.0" encoding="utf-8"?>
<svg version="1.1" xmlns:xlink="http://www.w3.org/1999/xlink" width="191px" height="103px" xmlns="http://www.w3.org/2000/svg">
  <g transform="matrix(1 0 0 1 -560 -801 )">
    <path d="M 560 801  L 751 801  L 751 904  L 560 904  L 560 801  " fill-rule="nonzero" fill="#cccccc" stroke="none" />
    <path d="M 567 808  L 744 808  L 744 897  L 567 897  L 567 808  " fill-rule="nonzero" fill="#ffffff" stroke="none" />
    <path d="M 667.045 831.9  C 662.719 831.9  659.32 828.501  659.32 824.175  C 659.32 819.849  662.719 816.45  667.045 816.45  C 671.371 816.45  674.77 819.849  674.77 824.175  C 674.77 828.501  671.371 831.9  667.045 831.9  " fill-rule="nonzero" fill="#cccccc" stroke="none" />
    <path d="M 570 895  L 570 848.8  L 613 827.8  L 673.2 867.820942408377  L 707.6 840.4  L 742 867.820942408377  L 742 895  L 570 895  " fill-rule="nonzero" fill="#169bd5" stroke="none" />
  </g>
</svg>