﻿<?xml version="1.0" encoding="utf-8"?>
<svg version="1.1" xmlns:xlink="http://www.w3.org/1999/xlink" width="632px" height="10px" preserveAspectRatio="xMinYMid meet" viewBox="223 371  632 8" xmlns="http://www.w3.org/2000/svg">
  <path d="M 223 375  L 845 375  A 5 5 0 0 1 850 380 L 850 670  A 5 5 0 0 0 855 675 L 868 675  " stroke-width="2" stroke="#d9001b" fill="none" />
</svg>