﻿<?xml version="1.0" encoding="utf-8"?>
<svg version="1.1" xmlns:xlink="http://www.w3.org/1999/xlink" width="12px" height="12px" viewBox="158 34  12 12" xmlns="http://www.w3.org/2000/svg">
  <path d="M 158.5 34.5  L 169.5 34.5  L 169.5 45.5  L 158.5 45.5  L 158.5 34.5  Z " fill-rule="nonzero" fill="#ffffff" stroke="none" />
  <path d="M 158.5 34.5  L 169.5 34.5  L 169.5 45.5  L 158.5 45.5  L 158.5 34.5  Z " stroke-width="1" stroke="#797979" fill="none" />
  <path d="M 160.571428571429 40  L 163.142857142857 42.5714285714286  L 167.428571428571 36.5714285714286  " stroke-width="2.57142857142857" stroke="#797979" fill="none" />
</svg>