﻿<?xml version="1.0" encoding="utf-8"?>
<svg version="1.1" xmlns:xlink="http://www.w3.org/1999/xlink" width="138px" height="10px" preserveAspectRatio="xMinYMid meet" viewBox="176 160  138 8" xmlns="http://www.w3.org/2000/svg">
  <path d="M 309 164  L 176 164  " stroke-width="2" stroke="#d9001b" fill="none" />
</svg>