﻿<?xml version="1.0" encoding="utf-8"?>
<svg version="1.1" xmlns:xlink="http://www.w3.org/1999/xlink" width="104px" height="10px" preserveAspectRatio="xMinYMid meet" viewBox="205 391  104 8" xmlns="http://www.w3.org/2000/svg">
  <path d="M 309 395  L 215 395  A 5 5 0 0 0 210 400 A 5 5 0 0 1 205 405 L 199 405  " stroke-width="2" stroke="#d9001b" fill="none" />
</svg>