﻿<?xml version="1.0" encoding="utf-8"?>
<svg version="1.1" xmlns:xlink="http://www.w3.org/1999/xlink" width="16px" height="10px" preserveAspectRatio="xMinYMid meet" viewBox="199 516  16 8" xmlns="http://www.w3.org/2000/svg">
  <path d="M 309 510  L 215 510  A 5 5 0 0 0 210 515 A 5 5 0 0 1 205 520 L 199 520  " stroke-width="2" stroke="#d9001b" fill="none" />
</svg>