﻿<?xml version="1.0" encoding="utf-8"?>
<svg version="1.1" xmlns:xlink="http://www.w3.org/1999/xlink" width="112px" height="95px" xmlns="http://www.w3.org/2000/svg">
  <defs>
    <mask fill="white" id="clip547">
      <path d="M 392 435  L 444 435  L 444 454  L 392 454  Z M 361 396  L 473 396  L 473 491  L 361 491  Z " fill-rule="evenodd" />
    </mask>
  </defs>
  <g transform="matrix(1 0 0 1 -361 -396 )">
    <path d="M 361.5 396.5  L 472.5 396.5  L 472.5 490.5  L 361.5 490.5  L 361.5 396.5  Z " fill-rule="nonzero" fill="#f2f2f2" stroke="none" />
    <path d="M 361.5 396.5  L 472.5 396.5  L 472.5 490.5  L 361.5 490.5  L 361.5 396.5  Z " stroke-width="1" stroke="#797979" fill="none" />
    <path d="M 361.449539066254 396.381305457984  L 472.550460933746 490.618694542017  M 472.550460933746 396.381305457984  L 361.449539066254 490.618694542017  " stroke-width="1" stroke="#797979" fill="none" mask="url(#clip547)" />
  </g>
</svg>