﻿<?xml version="1.0" encoding="utf-8"?>
<svg version="1.1" xmlns:xlink="http://www.w3.org/1999/xlink" width="151px" height="337px" xmlns="http://www.w3.org/2000/svg">
  <g transform="matrix(1 0 0 1 -44 -389 )">
    <path d="M 44 389  L 195 389  L 195 726  L 44 726  L 44 389  " fill-rule="nonzero" fill="#cccccc" stroke="none" />
    <path d="M 55 400  L 184 400  L 184 715  L 55 715  L 55 400  " fill-rule="nonzero" fill="#ffffff" stroke="none" />
    <path d="M 133.845 462.2  C 127.503 462.2  122.52 457.217  122.52 450.875  C 122.52 444.533  127.503 439.55  133.845 439.55  C 140.187 439.55  145.17 444.533  145.17 450.875  C 145.17 457.217  140.187 462.2  133.845 462.2  " fill-rule="nonzero" fill="#cccccc" stroke="none" />
    <path d="M 59 711  L 59 542.15  L 89.25 465.4  L 131.6 526.8  L 155.8 511.45  L 180 526.8  L 180 711  L 59 711  " fill-rule="nonzero" fill="#169bd5" stroke="none" />
  </g>
</svg>