﻿<?xml version="1.0" encoding="utf-8"?>
<svg version="1.1" xmlns:xlink="http://www.w3.org/1999/xlink" width="229px" height="169px" xmlns="http://www.w3.org/2000/svg">
  <g transform="matrix(1 0 0 1 -5 -67 )">
    <path d="M 5.5 67.5  L 233.5 67.5  L 233.5 235.5  L 5.5 235.5  L 5.5 67.5  Z " fill-rule="nonzero" fill="#f2f2f2" stroke="none" />
    <path d="M 5.5 67.5  L 233.5 67.5  L 233.5 235.5  L 5.5 235.5  L 5.5 67.5  Z " stroke-width="1" stroke="#797979" fill="none" />
    <path d="M 5.54513792075536 67.4023070244876  L 233.454862079245 235.597692975512  M 233.454862079245 67.4023070244876  L 5.54513792075536 235.597692975512  " stroke-width="1" stroke="#797979" fill="none" />
  </g>
</svg>