﻿<?xml version="1.0" encoding="utf-8"?>
<svg version="1.1" xmlns:xlink="http://www.w3.org/1999/xlink" width="12px" height="12px" viewBox="66 224  12 12" xmlns="http://www.w3.org/2000/svg">
  <path d="M 66.5 224.5  L 77.5 224.5  L 77.5 235.5  L 66.5 235.5  L 66.5 224.5  Z " fill-rule="nonzero" fill="#ffffff" stroke="none" />
  <path d="M 66.5 224.5  L 77.5 224.5  L 77.5 235.5  L 66.5 235.5  L 66.5 224.5  Z " stroke-width="1" stroke="#797979" fill="none" />
  <path d="M 68.5714285714286 230  L 71.1428571428571 232.571428571429  L 75.4285714285714 226.571428571429  " stroke-width="2.57142857142857" stroke="#797979" fill="none" />
</svg>