﻿<?xml version="1.0" encoding="utf-8"?>
<svg version="1.1" xmlns:xlink="http://www.w3.org/1999/xlink" width="12px" height="12px" viewBox="137 240  12 12" xmlns="http://www.w3.org/2000/svg">
  <path d="M 137.5 240.5  L 148.5 240.5  L 148.5 251.5  L 137.5 251.5  L 137.5 240.5  Z " fill-rule="nonzero" fill="#ffffff" stroke="none" />
  <path d="M 137.5 240.5  L 148.5 240.5  L 148.5 251.5  L 137.5 251.5  L 137.5 240.5  Z " stroke-width="1" stroke="#797979" fill="none" />
  <path d="M 139.571428571429 246  L 142.142857142857 248.571428571429  L 146.428571428571 242.571428571429  " stroke-width="2.57142857142857" stroke="#797979" fill="none" />
</svg>