﻿<?xml version="1.0" encoding="utf-8"?>
<svg version="1.1" xmlns:xlink="http://www.w3.org/1999/xlink" width="206px" height="108px" xmlns="http://www.w3.org/2000/svg">
  <defs>
    <mask fill="white" id="clip23">
      <path d="M 87.5 492  L 152.5 492  L 152.5 511  L 87.5 511  Z M 16 446  L 222 446  L 222 554  L 16 554  Z " fill-rule="evenodd" />
    </mask>
  </defs>
  <g transform="matrix(1 0 0 1 -16 -446 )">
    <path d="M 16.5 446.5  L 221.5 446.5  L 221.5 553.5  L 16.5 553.5  L 16.5 446.5  Z " fill-rule="nonzero" fill="#f2f2f2" stroke="none" />
    <path d="M 16.5 446.5  L 221.5 446.5  L 221.5 553.5  L 16.5 553.5  L 16.5 446.5  Z " stroke-width="1" stroke="#797979" fill="none" />
    <path d="M 16.8446602508116 446.442831587804  L 221.155339749188 553.557168412196  M 221.155339749188 446.442831587804  L 16.8446602508116 553.557168412196  " stroke-width="1" stroke="#797979" fill="none" mask="url(#clip23)" />
  </g>
</svg>