﻿<?xml version="1.0" encoding="utf-8"?>
<svg version="1.1" xmlns:xlink="http://www.w3.org/1999/xlink" width="148px" height="331px" xmlns="http://www.w3.org/2000/svg">
  <g transform="matrix(1 0 0 1 -43 -382 )">
    <path d="M 43 382  L 191 382  L 191 713  L 43 713  L 43 382  " fill-rule="nonzero" fill="#cccccc" stroke="none" />
    <path d="M 53 392  L 181 392  L 181 703  L 53 703  L 53 392  " fill-rule="nonzero" fill="#ffffff" stroke="none" />
    <path d="M 131.06 453.85  C 124.844 453.85  119.96 448.966  119.96 442.75  C 119.96 436.534  124.844 431.65  131.06 431.65  C 137.276 431.65  142.16 436.534  142.16 442.75  C 142.16 448.966  137.276 453.85  131.06 453.85  " fill-rule="nonzero" fill="#cccccc" stroke="none" />
    <path d="M 57 700  L 57 532.8  L 87.25 456.8  L 129.6 517.6  L 153.8 502.4  L 178 517.6  L 178 700  L 57 700  " fill-rule="nonzero" fill="#169bd5" stroke="none" />
  </g>
</svg>