﻿<?xml version="1.0" encoding="utf-8"?>
<svg version="1.1" xmlns:xlink="http://www.w3.org/1999/xlink" width="12px" height="12px" viewBox="80 361  12 12" xmlns="http://www.w3.org/2000/svg">
  <path d="M 80.5 361.5  L 91.5 361.5  L 91.5 372.5  L 80.5 372.5  L 80.5 361.5  Z " fill-rule="nonzero" fill="#ffffff" stroke="none" />
  <path d="M 80.5 361.5  L 91.5 361.5  L 91.5 372.5  L 80.5 372.5  L 80.5 361.5  Z " stroke-width="1" stroke="#797979" fill="none" />
  <path d="M 82.5714285714286 367  L 85.1428571428571 369.571428571429  L 89.4285714285714 363.571428571429  " stroke-width="2.57142857142857" stroke="#797979" fill="none" />
</svg>