﻿<?xml version="1.0" encoding="utf-8"?>
<svg version="1.1" xmlns:xlink="http://www.w3.org/1999/xlink" width="12px" height="12px" viewBox="463 80  12 12" xmlns="http://www.w3.org/2000/svg">
  <path d="M 463.5 80.5  L 474.5 80.5  L 474.5 91.5  L 463.5 91.5  L 463.5 80.5  Z " fill-rule="nonzero" fill="#ffffff" stroke="none" />
  <path d="M 463.5 80.5  L 474.5 80.5  L 474.5 91.5  L 463.5 91.5  L 463.5 80.5  Z " stroke-width="1" stroke="#797979" fill="none" />
  <path d="M 465.571428571429 86  L 468.142857142857 88.5714285714286  L 472.428571428571 82.5714285714286  " stroke-width="2.57142857142857" stroke="#797979" fill="none" />
</svg>