﻿<?xml version="1.0" encoding="utf-8"?>
<svg version="1.1" xmlns:xlink="http://www.w3.org/1999/xlink" width="40px" height="40px" xmlns="http://www.w3.org/2000/svg">
  <defs>
    <filter x="5px" y="87px" width="40px" height="40px" filterUnits="userSpaceOnUse" id="filter526">
      <feOffset dx="1" dy="1" in="SourceAlpha" result="shadowOffsetInner" />
      <feGaussianBlur stdDeviation="2.5" in="shadowOffsetInner" result="shadowGaussian" />
      <feComposite in2="shadowGaussian" operator="atop" in="SourceAlpha" result="shadowComposite" />
      <feColorMatrix type="matrix" values="0 0 0 0 0  0 0 0 0 0  0 0 0 0 0  0 0 0 0.698039215686274 0  " in="shadowComposite" />
    </filter>
    <g id="widget527">
      <path d="M 24 91  C 32.4 91  39 97.6  39 106  C 39 114.4  32.4 121  24 121  C 15.6 121  9 114.4  9 106  C 9 97.6  15.6 91  24 91  Z " fill-rule="nonzero" fill="#990099" stroke="none" />
      <path d="M 24 91.5  C 32.12 91.5  38.5 97.88  38.5 106  C 38.5 114.12  32.12 120.5  24 120.5  C 15.88 120.5  9.5 114.12  9.5 106  C 9.5 97.88  15.88 91.5  24 91.5  Z " stroke-width="1" stroke="#ffffff" fill="none" />
    </g>
  </defs>
  <g transform="matrix(1 0 0 1 -5 -87 )">
    <use xlink:href="#widget527" filter="url(#filter526)" />
    <use xlink:href="#widget527" />
  </g>
</svg>