﻿<?xml version="1.0" encoding="utf-8"?>
<svg version="1.1" xmlns:xlink="http://www.w3.org/1999/xlink" width="108px" height="93px" xmlns="http://www.w3.org/2000/svg">
  <defs>
    <mask fill="white" id="clip581">
      <path d="M 272 435  L 324 435  L 324 454  L 272 454  Z M 243 396  L 351 396  L 351 489  L 243 489  Z " fill-rule="evenodd" />
    </mask>
  </defs>
  <g transform="matrix(1 0 0 1 -243 -396 )">
    <path d="M 243.5 396.5  L 350.5 396.5  L 350.5 488.5  L 243.5 488.5  L 243.5 396.5  Z " fill-rule="nonzero" fill="#f2f2f2" stroke="none" />
    <path d="M 243.5 396.5  L 350.5 396.5  L 350.5 488.5  L 243.5 488.5  L 243.5 396.5  Z " stroke-width="1" stroke="#797979" fill="none" />
    <path d="M 243.439994788463 396.378884401177  L 350.560005211537 488.621115598823  M 350.560005211537 396.378884401177  L 243.439994788463 488.621115598823  " stroke-width="1" stroke="#797979" fill="none" mask="url(#clip581)" />
  </g>
</svg>