﻿<?xml version="1.0" encoding="utf-8"?>
<svg version="1.1" xmlns:xlink="http://www.w3.org/1999/xlink" width="108px" height="93px" xmlns="http://www.w3.org/2000/svg">
  <defs>
    <mask fill="white" id="clip570">
      <path d="M 8 426  L 116 426  L 116 460  L 8 460  Z M 7 395  L 115 395  L 115 488  L 7 488  Z " fill-rule="evenodd" />
    </mask>
  </defs>
  <g transform="matrix(1 0 0 1 -7 -395 )">
    <path d="M 7.5 395.5  L 114.5 395.5  L 114.5 487.5  L 7.5 487.5  L 7.5 395.5  Z " fill-rule="nonzero" fill="#f2f2f2" stroke="none" />
    <path d="M 7.5 395.5  L 114.5 395.5  L 114.5 487.5  L 7.5 487.5  L 7.5 395.5  Z " stroke-width="1" stroke="#797979" fill="none" />
    <path d="M 7.43999478846327 395.378884401177  L 114.560005211537 487.621115598823  M 114.560005211537 395.378884401177  L 7.43999478846327 487.621115598823  " stroke-width="1" stroke="#797979" fill="none" mask="url(#clip570)" />
  </g>
</svg>