﻿<?xml version="1.0" encoding="utf-8"?>
<svg version="1.1" xmlns:xlink="http://www.w3.org/1999/xlink" width="10px" height="19px" preserveAspectRatio="xMidYMin meet" viewBox="326 297  8 19" xmlns="http://www.w3.org/2000/svg">
  <path d="M 394 302  L 334.5 302  A 4.5 4.5 0 0 0 330 306.5 A 4.5 4.5 0 0 1 325.5 311 L 316 311  " stroke-width="2" stroke="#d9001b" fill="none" />
</svg>