﻿<?xml version="1.0" encoding="utf-8"?>
<svg version="1.1" xmlns:xlink="http://www.w3.org/1999/xlink" width="10px" height="22px" preserveAspectRatio="xMidYMin meet" viewBox="719 177  8 22" xmlns="http://www.w3.org/2000/svg">
  <path d="M 669 182  L 718 182  A 5 5 0 0 1 723 187 L 723 189.5  A 4.5 4.5 0 0 0 727.5 194 L 732 194  " stroke-width="2" stroke="#d9001b" fill="none" />
</svg>