﻿<?xml version="1.0" encoding="utf-8"?>
<svg version="1.1" xmlns:xlink="http://www.w3.org/1999/xlink" width="10px" height="38px" preserveAspectRatio="xMidYMin meet" viewBox="716 237  8 38" xmlns="http://www.w3.org/2000/svg">
  <path d="M 669 242  L 715 242  A 5 5 0 0 1 720 247 L 720 265  A 5 5 0 0 0 725 270 L 732 270  " stroke-width="2" stroke="#d9001b" fill="none" />
</svg>