﻿<?xml version="1.0" encoding="utf-8"?>
<svg version="1.1" xmlns:xlink="http://www.w3.org/1999/xlink" width="10px" height="50px" preserveAspectRatio="xMidYMin meet" viewBox="716 297  8 50" xmlns="http://www.w3.org/2000/svg">
  <path d="M 669 302  L 715 302  A 5 5 0 0 1 720 307 L 720 337  A 5 5 0 0 0 725 342 L 732 342  " stroke-width="2" stroke="#d9001b" fill="none" />
</svg>