﻿<?xml version="1.0" encoding="utf-8"?>
<svg version="1.1" xmlns:xlink="http://www.w3.org/1999/xlink" width="15px" height="10px" preserveAspectRatio="xMinYMid meet" viewBox="705 758  15 8" xmlns="http://www.w3.org/2000/svg">
  <path d="M 669 756  L 707 756  A 3 3 0 0 1 710 759 A 3 3 0 0 0 713 762 L 720 762  " stroke-width="2" stroke="#d9001b" fill="none" />
</svg>