﻿<?xml version="1.0" encoding="utf-8"?>
<svg version="1.1" xmlns:xlink="http://www.w3.org/1999/xlink" width="10px" height="30px" preserveAspectRatio="xMidYMin meet" viewBox="366 623  8 30" xmlns="http://www.w3.org/2000/svg">
  <path d="M 316 628  L 365 628  A 5 5 0 0 1 370 633 L 370 643  A 5 5 0 0 0 375 648 L 394 648  " stroke-width="2" stroke="#d9001b" fill="none" />
</svg>