﻿<?xml version="1.0" encoding="utf-8"?>
<svg version="1.1" xmlns:xlink="http://www.w3.org/1999/xlink" width="29px" height="10px" preserveAspectRatio="xMinYMid meet" viewBox="365 752  29 8" xmlns="http://www.w3.org/2000/svg">
  <path d="M 316 762  L 367 762  A 3 3 0 0 0 370 759 A 3 3 0 0 1 373 756 L 394 756  " stroke-width="2" stroke="#d9001b" fill="none" />
</svg>