﻿<?xml version="1.0" encoding="utf-8"?>
<svg version="1.1" xmlns:xlink="http://www.w3.org/1999/xlink" width="15px" height="10px" preserveAspectRatio="xMinYMid meet" viewBox="705 338  15 8" xmlns="http://www.w3.org/2000/svg">
  <path d="M 669 302  L 705 302  A 5 5 0 0 1 710 307 L 710 337  A 5 5 0 0 0 715 342 L 720 342  " stroke-width="2" stroke="#0099cc" fill="none" />
</svg>