﻿<?xml version="1.0" encoding="utf-8"?>
<svg version="1.1" xmlns:xlink="http://www.w3.org/1999/xlink" width="46px" height="10px" preserveAspectRatio="xMinYMid meet" viewBox="669 698  46 8" xmlns="http://www.w3.org/2000/svg">
  <path d="M 669 702  L 706.5 702  A 3.5 3.5 0 0 0 710 698.5 A 3.5 3.5 0 0 1 713.5 695 L 720 695  " stroke-width="2" stroke="#0099cc" fill="none" />
</svg>