﻿<?xml version="1.0" encoding="utf-8"?>
<svg version="1.1" xmlns:xlink="http://www.w3.org/1999/xlink" width="10px" height="16px" preserveAspectRatio="xMidYMin meet" viewBox="706 751  8 16" xmlns="http://www.w3.org/2000/svg">
  <path d="M 669 756  L 707 756  A 3 3 0 0 1 710 759 A 3 3 0 0 0 713 762 L 720 762  " stroke-width="2" stroke="#0099cc" fill="none" />
</svg>