﻿<?xml version="1.0" encoding="utf-8"?>
<svg version="1.1" xmlns:xlink="http://www.w3.org/1999/xlink" width="46px" height="10px" preserveAspectRatio="xMinYMid meet" viewBox="669 860  46 8" xmlns="http://www.w3.org/2000/svg">
  <path d="M 669 864  L 705 864  A 5 5 0 0 1 710 869 L 710 892  A 5 5 0 0 0 715 897 L 720 897  " stroke-width="2" stroke="#0099cc" fill="none" />
</svg>