﻿<?xml version="1.0" encoding="utf-8"?>
<svg version="1.1" xmlns:xlink="http://www.w3.org/1999/xlink" width="29px" height="10px" preserveAspectRatio="xMinYMid meet" viewBox="365 860  29 8" xmlns="http://www.w3.org/2000/svg">
  <path d="M 316 897  L 365 897  A 5 5 0 0 0 370 892 L 370 869  A 5 5 0 0 1 375 864 L 394 864  " stroke-width="2" stroke="#0099cc" fill="none" />
</svg>