﻿<?xml version="1.0" encoding="utf-8"?>
<svg version="1.1" xmlns:xlink="http://www.w3.org/1999/xlink" width="13px" height="10px" preserveAspectRatio="xMinYMid meet" viewBox="324 691  13 8" xmlns="http://www.w3.org/2000/svg">
  <path d="M 245 709  L 324 709  A 5 5 0 0 0 329 704 L 329 699  A 4 4 0 0 1 333 695 L 337 695  " stroke-width="2" stroke="#0099cc" fill="none" />
</svg>