﻿<?xml version="1.0" encoding="utf-8"?>
<svg version="1.1" xmlns:xlink="http://www.w3.org/1999/xlink" width="10px" height="14px" preserveAspectRatio="xMidYMin meet" viewBox="325 761  8 14" xmlns="http://www.w3.org/2000/svg">
  <path d="M 245 770  L 327 770  A 2 2 0 0 0 329 768 A 2 2 0 0 1 331 766 L 337 766  " stroke-width="2" stroke="#0099cc" fill="none" />
</svg>