﻿<?xml version="1.0" encoding="utf-8"?>
<svg version="1.1" xmlns:xlink="http://www.w3.org/1999/xlink" width="24px" height="10px" preserveAspectRatio="xMinYMid meet" viewBox="305 97  24 8" xmlns="http://www.w3.org/2000/svg">
  <path d="M 245 123  L 305 123  A 5 5 0 0 0 310 118 L 310 106  A 5 5 0 0 1 315 101 L 329 101  " stroke-width="2" stroke="#d9001b" fill="none" />
</svg>