﻿<?xml version="1.0" encoding="utf-8"?>
<svg version="1.1" xmlns:xlink="http://www.w3.org/1999/xlink" width="70px" height="10px" preserveAspectRatio="xMinYMid meet" viewBox="245 173  70 8" xmlns="http://www.w3.org/2000/svg">
  <path d="M 245 177  L 309 177  A 1 1 0 0 0 310 176 A 1 1 0 0 1 311 175 L 329 175  " stroke-width="2" stroke="#d9001b" fill="none" />
</svg>