﻿<?xml version="1.0" encoding="utf-8"?>
<svg version="1.1" xmlns:xlink="http://www.w3.org/1999/xlink" width="10px" height="12px" preserveAspectRatio="xMidYMin meet" viewBox="306 228  8 12" xmlns="http://www.w3.org/2000/svg">
  <path d="M 245 235  L 309 235  A 1 1 0 0 0 310 234 A 1 1 0 0 1 311 233 L 329 233  " stroke-width="2" stroke="#d9001b" fill="none" />
</svg>