﻿<?xml version="1.0" encoding="utf-8"?>
<svg version="1.1" xmlns:xlink="http://www.w3.org/1999/xlink" width="152px" height="102px" xmlns="http://www.w3.org/2000/svg">
  <defs>
    <mask fill="white" id="clip12">
      <path d="M 184 252  L 236 252  L 236 271  L 184 271  Z M 133 209  L 285 209  L 285 311  L 133 311  Z " fill-rule="evenodd" />
    </mask>
  </defs>
  <g transform="matrix(1 0 0 1 -133 -209 )">
    <path d="M 133.5 209.5  L 284.5 209.5  L 284.5 310.5  L 133.5 310.5  L 133.5 209.5  Z " fill-rule="nonzero" fill="#f2f2f2" stroke="none" />
    <path d="M 133.5 209.5  L 284.5 209.5  L 284.5 310.5  L 133.5 310.5  L 133.5 209.5  Z " stroke-width="1" stroke="#797979" fill="none" />
    <path d="M 133.618703759639 209.415182786073  L 284.381296240361 310.584817213927  M 284.381296240361 209.415182786073  L 133.618703759639 310.584817213927  " stroke-width="1" stroke="#797979" fill="none" mask="url(#clip12)" />
  </g>
</svg>